[gd_scene load_steps=15 format=2]

[ext_resource path="res://src/MainWindow.gd" type="Script" id=1]
[ext_resource path="res://src/versions/VersionsTab.tscn" type="PackedScene" id=2]
[ext_resource path="res://src/projects/ProjectsTab.tscn" type="PackedScene" id=3]
[ext_resource path="res://src/dialogs/ConfirmQuit.tscn" type="PackedScene" id=4]
[ext_resource path="res://styles/theme.tres" type="Theme" id=5]
[ext_resource path="res://src/components/SearchBar.tscn" type="PackedScene" id=6]
[ext_resource path="res://src/components/SidePanel.tscn" type="PackedScene" id=7]
[ext_resource path="res://src/templates/TemplatesTab.tscn" type="PackedScene" id=8]
[ext_resource path="res://src/dialogs/AboutDialog.tscn" type="PackedScene" id=9]
[ext_resource path="res://data/splash.png" type="Texture" id=10]
[ext_resource path="res://data/icons.svg" type="Texture" id=11]

[sub_resource type="StyleBoxFlat" id=1]
bg_color = Color( 0.301961, 0.376471, 0.482353, 1 )

[sub_resource type="AtlasTexture" id=2]
flags = 4
atlas = ExtResource( 11 )
region = Rect2( 32, 16, 16, 16 )

[sub_resource type="StyleBoxEmpty" id=3]

[node name="MainWindow" type="Panel"]
anchor_right = 1.0
anchor_bottom = 1.0
theme = ExtResource( 5 )
custom_styles/panel = SubResource( 1 )
script = ExtResource( 1 )
__meta__ = {
"_edit_use_anchors_": false
}

[node name="VBoxContainer" type="VBoxContainer" parent="."]
anchor_right = 1.0
anchor_bottom = 1.0
__meta__ = {
"_edit_use_anchors_": false
}

[node name="Margin" type="MarginContainer" parent="VBoxContainer"]
margin_right = 1024.0
margin_bottom = 60.0
custom_constants/margin_right = 10
custom_constants/margin_top = 10
custom_constants/margin_left = 10
custom_constants/margin_bottom = 10

[node name="TopBar" type="HBoxContainer" parent="VBoxContainer/Margin"]
margin_left = 10.0
margin_top = 10.0
margin_right = 1014.0
margin_bottom = 50.0
custom_constants/separation = 40
__meta__ = {
"_edit_use_anchors_": false
}

[node name="LogoButton" type="TextureButton" parent="VBoxContainer/Margin/TopBar"]
margin_top = 4.0
margin_right = 128.0
margin_bottom = 36.0
rect_min_size = Vector2( 128, 32 )
size_flags_vertical = 4
texture_normal = ExtResource( 10 )
expand = true

[node name="UpdateIndicator" type="TextureRect" parent="VBoxContainer/Margin/TopBar/LogoButton"]
visible = false
anchor_left = 1.0
anchor_right = 1.0
margin_bottom = 40.0
texture = SubResource( 2 )
__meta__ = {
"_edit_use_anchors_": false
}

[node name="SearchBar" parent="VBoxContainer/Margin/TopBar" instance=ExtResource( 6 )]
margin_left = 168.0
margin_right = 1004.0
rect_min_size = Vector2( 0, 40 )
size_flags_vertical = 4

[node name="HBoxContainer" type="HBoxContainer" parent="VBoxContainer"]
margin_top = 64.0
margin_right = 1024.0
margin_bottom = 600.0
size_flags_vertical = 3
custom_constants/separation = 20

[node name="SidePanel" parent="VBoxContainer/HBoxContainer" instance=ExtResource( 7 )]
anchor_top = 0.0
anchor_bottom = 0.0
margin_top = 0.0
margin_right = 200.0
margin_bottom = 536.0

[node name="Content" type="TabContainer" parent="VBoxContainer/HBoxContainer"]
margin_left = 220.0
margin_right = 1004.0
margin_bottom = 536.0
size_flags_horizontal = 3
size_flags_vertical = 3
custom_styles/panel = SubResource( 3 )
tabs_visible = false

[node name="Projects" parent="VBoxContainer/HBoxContainer/Content" instance=ExtResource( 3 )]

[node name="Versions" parent="VBoxContainer/HBoxContainer/Content" instance=ExtResource( 2 )]
visible = false
margin_left = 0.0
margin_top = 0.0
margin_right = 0.0
margin_bottom = 0.0

[node name="Templates" parent="VBoxContainer/HBoxContainer/Content" instance=ExtResource( 8 )]
visible = false

[node name="spacer" type="Control" parent="VBoxContainer/HBoxContainer"]
margin_left = 1024.0
margin_right = 1024.0
margin_bottom = 536.0

[node name="ConfirmQuit" parent="." instance=ExtResource( 4 )]

[node name="AboutDialog" parent="." instance=ExtResource( 9 )]
[connection signal="pressed" from="VBoxContainer/Margin/TopBar/LogoButton" to="." method="_on_LogoButton_pressed"]
[connection signal="search_changed" from="VBoxContainer/Margin/TopBar/SearchBar" to="." method="_on_SearchBar_search_changed"]
[connection signal="action_pressed" from="VBoxContainer/HBoxContainer/SidePanel" to="." method="_on_SidePanel_action_pressed"]
[connection signal="tab_changed" from="VBoxContainer/HBoxContainer/SidePanel" to="." method="_on_SidePanel_tab_changed"]
